{"meta":{"protocolVersion":"13.2.1","implementation":{"name":"cucumber-ruby","version":"5.3.0"},"runtime":{"name":"ruby","version":"2.6.5"},"os":{"name":"mingw32","version":"10.0.19041"},"cpu":{"name":"x64"}}}
{"hook":{"id":"7c64aa93-ab26-4fef-bb4a-92a8dc80599e","sourceReference":{"uri":"capybara-3.35.3/lib/capybara/cucumber.rb","location":{"line":10}}}}
{"hook":{"id":"15cac99c-f07e-4253-8958-55ccfec92490","sourceReference":{"uri":"capybara-3.35.3/lib/capybara/cucumber.rb","location":{"line":14}}}}
{"hook":{"id":"59721c80-7ba8-4fab-9c1e-85eccb97dc3b","tagExpression":"@javascript","sourceReference":{"uri":"capybara-3.35.3/lib/capybara/cucumber.rb","location":{"line":18}}}}
{"hook":{"id":"534fef13-2ce7-478a-addc-2b85e4f83cf0","sourceReference":{"uri":"capybara-3.35.3/lib/capybara/cucumber.rb","location":{"line":22}}}}
{"stepDefinition":{"id":"cf6e4b34-4115-42d3-97e1-ebf579402175","pattern":{"source":"o site da inmetrics","type":"CUCUMBER_EXPRESSION"},"sourceReference":{"uri":"features/step_definitions/cadastro.rb","location":{"line":3}}}}
{"stepDefinition":{"id":"fdf5be15-9979-49b0-8015-319054cdf93f","pattern":{"source":"clicar sobre a opção cadastrar-se","type":"CUCUMBER_EXPRESSION"},"sourceReference":{"uri":"features/step_definitions/cadastro.rb","location":{"line":9}}}}
{"stepDefinition":{"id":"7cf71d82-9040-45f0-bea4-12c4d940ef86","pattern":{"source":"preencher campo de usuário","type":"CUCUMBER_EXPRESSION"},"sourceReference":{"uri":"features/step_definitions/cadastro.rb","location":{"line":14}}}}
{"stepDefinition":{"id":"344d0aba-69c8-4256-8be4-7bdf84b34f2c","pattern":{"source":"preencher campo de senha","type":"CUCUMBER_EXPRESSION"},"sourceReference":{"uri":"features/step_definitions/cadastro.rb","location":{"line":18}}}}
{"stepDefinition":{"id":"85b08d26-1db5-48b1-92a5-2bd9025e82d2","pattern":{"source":"preecnher campo confirme senha","type":"CUCUMBER_EXPRESSION"},"sourceReference":{"uri":"features/step_definitions/cadastro.rb","location":{"line":22}}}}
{"stepDefinition":{"id":"55ff0767-15d1-4b30-9ad5-f147e17dfb60","pattern":{"source":"pressionar botão Cadastrar","type":"CUCUMBER_EXPRESSION"},"sourceReference":{"uri":"features/step_definitions/cadastro.rb","location":{"line":26}}}}
{"stepDefinition":{"id":"e82e62fd-7882-40dd-8a78-b9f6f7b75491","pattern":{"source":"cria conta para usuário","type":"CUCUMBER_EXPRESSION"},"sourceReference":{"uri":"features/step_definitions/cadastro.rb","location":{"line":30}}}}
{"source":{"uri":"features/specifications/cadastro.feature","data":"#language: pt\n\n\nFuncionalidade: Cadastrar um usuário\n    Eu quero criar um cadastro na inmetrics\n    Afim de utilizar as funcionalidades do site.\n\nCenário: Cadasto de usuário\n    Dado o site da inmetrics\n    E clicar sobre a opção cadastrar-se\n    Quando preencher campo de usuário\n    E preencher campo de senha\n    E preecnher campo confirme senha\n    E pressionar botão Cadastrar\n    Então cria conta para usuário","mediaType":"text/x.cucumber.gherkin+plain"}}
{"gherkinDocument":{"feature":{"location":{"line":4,"column":1},"language":"pt","keyword":"Funcionalidade","name":"Cadastrar um usuário","description":"    Eu quero criar um cadastro na inmetrics\n    Afim de utilizar as funcionalidades do site.","children":[{"scenario":{"id":"55eec152-144a-496c-89fe-52a1b6466235","location":{"line":8,"column":1},"keyword":"Cenário","name":"Cadasto de usuário","steps":[{"location":{"line":9,"column":5},"keyword":"Dado ","text":"o site da inmetrics","id":"da07d6af-b3bd-42ea-ad5b-a34cddd73707"},{"location":{"line":10,"column":5},"keyword":"E ","text":"clicar sobre a opção cadastrar-se","id":"b3a799a7-1737-4b60-9d74-4ec2d3a70bf2"},{"location":{"line":11,"column":5},"keyword":"Quando ","text":"preencher campo de usuário","id":"7ae0e536-abf3-4d9c-8c5d-b465d466d5ad"},{"location":{"line":12,"column":5},"keyword":"E ","text":"preencher campo de senha","id":"4af1d134-7007-43d3-996b-a75d23edf4f7"},{"location":{"line":13,"column":5},"keyword":"E ","text":"preecnher campo confirme senha","id":"991e8128-58f2-4019-8bad-b49df3729d2d"},{"location":{"line":14,"column":5},"keyword":"E ","text":"pressionar botão Cadastrar","id":"20d6f72b-8a3e-4ebd-aab1-82d2771753a2"},{"location":{"line":15,"column":5},"keyword":"Então ","text":"cria conta para usuário","id":"81c06ac5-cd81-453c-93bc-11c1ef260d31"}]}}]},"uri":"features/specifications/cadastro.feature"}}
{"pickle":{"uri":"features/specifications/cadastro.feature","id":"6409967c-b635-4a9b-b255-9fcb403c39a6","name":"Cadasto de usuário","language":"pt","astNodeIds":["55eec152-144a-496c-89fe-52a1b6466235"],"steps":[{"id":"33326b0c-73ba-47f5-a83e-2036001d7b54","astNodeIds":["da07d6af-b3bd-42ea-ad5b-a34cddd73707"],"text":"o site da inmetrics"},{"id":"c0d199ac-275a-4a64-af40-b72bd38e70c6","astNodeIds":["b3a799a7-1737-4b60-9d74-4ec2d3a70bf2"],"text":"clicar sobre a opção cadastrar-se"},{"id":"a962620e-6bc4-4390-9408-30e840aee96c","astNodeIds":["7ae0e536-abf3-4d9c-8c5d-b465d466d5ad"],"text":"preencher campo de usuário"},{"id":"4b82daa0-d4b9-443e-8b1c-5362e1df0c69","astNodeIds":["4af1d134-7007-43d3-996b-a75d23edf4f7"],"text":"preencher campo de senha"},{"id":"26f6415d-05d5-44fd-a453-0dfca84422c8","astNodeIds":["991e8128-58f2-4019-8bad-b49df3729d2d"],"text":"preecnher campo confirme senha"},{"id":"2c64d599-0872-4cf5-9b40-15dd1808af5e","astNodeIds":["20d6f72b-8a3e-4ebd-aab1-82d2771753a2"],"text":"pressionar botão Cadastrar"},{"id":"68984782-ecc3-4992-b9f4-02e029bdca89","astNodeIds":["81c06ac5-cd81-453c-93bc-11c1ef260d31"],"text":"cria conta para usuário"}]}}
{"testCase":{"id":"7973b947-dd48-462d-ab99-046f2441935c","pickleId":"6409967c-b635-4a9b-b255-9fcb403c39a6","testSteps":[{"id":"47fee99f-a180-4ea0-b4c2-200f921eb8a8","hookId":"15cac99c-f07e-4253-8958-55ccfec92490"},{"id":"00bf3b6f-1c2b-4d5b-a011-81a7620188e7","hookId":"534fef13-2ce7-478a-addc-2b85e4f83cf0"},{"id":"ad073c00-f0ba-45f9-aba0-1c0471438961","pickleStepId":"33326b0c-73ba-47f5-a83e-2036001d7b54","stepDefinitionIds":["cf6e4b34-4115-42d3-97e1-ebf579402175"],"stepMatchArgumentsLists":[{}]},{"id":"9889e6cb-e044-41cf-bdcc-dc86d835c696","pickleStepId":"c0d199ac-275a-4a64-af40-b72bd38e70c6","stepDefinitionIds":["fdf5be15-9979-49b0-8015-319054cdf93f"],"stepMatchArgumentsLists":[{}]},{"id":"caf7ebd1-ea80-4d1d-8481-417295cb5d3f","pickleStepId":"a962620e-6bc4-4390-9408-30e840aee96c","stepDefinitionIds":["7cf71d82-9040-45f0-bea4-12c4d940ef86"],"stepMatchArgumentsLists":[{}]},{"id":"8e8edd91-056b-42ae-94b8-d33c11689d58","pickleStepId":"4b82daa0-d4b9-443e-8b1c-5362e1df0c69","stepDefinitionIds":["344d0aba-69c8-4256-8be4-7bdf84b34f2c"],"stepMatchArgumentsLists":[{}]},{"id":"65f40797-93af-47ad-95ff-8a22d654e7e0","pickleStepId":"26f6415d-05d5-44fd-a453-0dfca84422c8","stepDefinitionIds":["85b08d26-1db5-48b1-92a5-2bd9025e82d2"],"stepMatchArgumentsLists":[{}]},{"id":"0db44e10-a300-480b-a3bc-6b5c4a086110","pickleStepId":"2c64d599-0872-4cf5-9b40-15dd1808af5e","stepDefinitionIds":["55ff0767-15d1-4b30-9ad5-f147e17dfb60"],"stepMatchArgumentsLists":[{}]},{"id":"bea97fb3-7503-4a74-a929-7938aa3ed917","pickleStepId":"68984782-ecc3-4992-b9f4-02e029bdca89","stepDefinitionIds":["e82e62fd-7882-40dd-8a78-b9f6f7b75491"],"stepMatchArgumentsLists":[{}]},{"id":"e676ffa8-a0b8-4534-a0fd-cc36cb53df2a","hookId":"7c64aa93-ab26-4fef-bb4a-92a8dc80599e"}]}}
{"testRunStarted":{"timestamp":{"seconds":"1612149177","nanos":999807400}}}
{"testCaseStarted":{"id":"93f5a49a-d3c6-4b1c-939c-cbafc6a95b71","testCaseId":"7973b947-dd48-462d-ab99-046f2441935c","timestamp":{"seconds":"1612149178","nanos":3588500},"attempt":1}}
{"testStepStarted":{"testStepId":"47fee99f-a180-4ea0-b4c2-200f921eb8a8","testCaseStartedId":"93f5a49a-d3c6-4b1c-939c-cbafc6a95b71","timestamp":{"seconds":"1612149178","nanos":132371900}}}
{"testStepFinished":{"testStepId":"47fee99f-a180-4ea0-b4c2-200f921eb8a8","testCaseStartedId":"93f5a49a-d3c6-4b1c-939c-cbafc6a95b71","testStepResult":{"status":"PASSED","duration":{"nanos":38200}},"timestamp":{"seconds":"1612149178","nanos":132948500}}}
{"testStepStarted":{"testStepId":"00bf3b6f-1c2b-4d5b-a011-81a7620188e7","testCaseStartedId":"93f5a49a-d3c6-4b1c-939c-cbafc6a95b71","timestamp":{"seconds":"1612149178","nanos":133221100}}}
{"testStepFinished":{"testStepId":"00bf3b6f-1c2b-4d5b-a011-81a7620188e7","testCaseStartedId":"93f5a49a-d3c6-4b1c-939c-cbafc6a95b71","testStepResult":{"status":"PASSED","duration":{"nanos":15600}},"timestamp":{"seconds":"1612149178","nanos":133579100}}}
{"testStepStarted":{"testStepId":"ad073c00-f0ba-45f9-aba0-1c0471438961","testCaseStartedId":"93f5a49a-d3c6-4b1c-939c-cbafc6a95b71","timestamp":{"seconds":"1612149178","nanos":133760800}}}
{"testStepFinished":{"testStepId":"ad073c00-f0ba-45f9-aba0-1c0471438961","testCaseStartedId":"93f5a49a-d3c6-4b1c-939c-cbafc6a95b71","testStepResult":{"status":"PASSED","duration":{"seconds":"7","nanos":389852399}},"timestamp":{"seconds":"1612149185","nanos":526407400}}}
{"testStepStarted":{"testStepId":"9889e6cb-e044-41cf-bdcc-dc86d835c696","testCaseStartedId":"93f5a49a-d3c6-4b1c-939c-cbafc6a95b71","timestamp":{"seconds":"1612149185","nanos":527739600}}}
{"testStepFinished":{"testStepId":"9889e6cb-e044-41cf-bdcc-dc86d835c696","testCaseStartedId":"93f5a49a-d3c6-4b1c-939c-cbafc6a95b71","testStepResult":{"status":"PASSED","duration":{"seconds":"3","nanos":234113100}},"timestamp":{"seconds":"1612149188","nanos":765593500}}}
{"testStepStarted":{"testStepId":"caf7ebd1-ea80-4d1d-8481-417295cb5d3f","testCaseStartedId":"93f5a49a-d3c6-4b1c-939c-cbafc6a95b71","timestamp":{"seconds":"1612149188","nanos":767393800}}}
{"testStepFinished":{"testStepId":"caf7ebd1-ea80-4d1d-8481-417295cb5d3f","testCaseStartedId":"93f5a49a-d3c6-4b1c-939c-cbafc6a95b71","testStepResult":{"status":"PASSED","duration":{"nanos":164178500}},"timestamp":{"seconds":"1612149188","nanos":933554500}}}
{"testStepStarted":{"testStepId":"8e8edd91-056b-42ae-94b8-d33c11689d58","testCaseStartedId":"93f5a49a-d3c6-4b1c-939c-cbafc6a95b71","timestamp":{"seconds":"1612149188","nanos":933973200}}}
{"testStepFinished":{"testStepId":"8e8edd91-056b-42ae-94b8-d33c11689d58","testCaseStartedId":"93f5a49a-d3c6-4b1c-939c-cbafc6a95b71","testStepResult":{"status":"PASSED","duration":{"nanos":90048500}},"timestamp":{"seconds":"1612149189","nanos":24963400}}}
{"testStepStarted":{"testStepId":"65f40797-93af-47ad-95ff-8a22d654e7e0","testCaseStartedId":"93f5a49a-d3c6-4b1c-939c-cbafc6a95b71","timestamp":{"seconds":"1612149189","nanos":25295300}}}
{"testStepFinished":{"testStepId":"65f40797-93af-47ad-95ff-8a22d654e7e0","testCaseStartedId":"93f5a49a-d3c6-4b1c-939c-cbafc6a95b71","testStepResult":{"status":"PASSED","duration":{"nanos":80745800}},"timestamp":{"seconds":"1612149189","nanos":108012000}}}
{"testStepStarted":{"testStepId":"0db44e10-a300-480b-a3bc-6b5c4a086110","testCaseStartedId":"93f5a49a-d3c6-4b1c-939c-cbafc6a95b71","timestamp":{"seconds":"1612149189","nanos":108648400}}}
{"testStepFinished":{"testStepId":"0db44e10-a300-480b-a3bc-6b5c4a086110","testCaseStartedId":"93f5a49a-d3c6-4b1c-939c-cbafc6a95b71","testStepResult":{"status":"PASSED","duration":{"seconds":"2","nanos":529428700}},"timestamp":{"seconds":"1612149191","nanos":639534700}}}
{"testStepStarted":{"testStepId":"bea97fb3-7503-4a74-a929-7938aa3ed917","testCaseStartedId":"93f5a49a-d3c6-4b1c-939c-cbafc6a95b71","timestamp":{"seconds":"1612149191","nanos":639926900}}}
{"testStepFinished":{"testStepId":"bea97fb3-7503-4a74-a929-7938aa3ed917","testCaseStartedId":"93f5a49a-d3c6-4b1c-939c-cbafc6a95b71","testStepResult":{"status":"PASSED","duration":{"seconds":"5","nanos":11032100}},"timestamp":{"seconds":"1612149196","nanos":655723500}}}
{"testStepStarted":{"testStepId":"e676ffa8-a0b8-4534-a0fd-cc36cb53df2a","testCaseStartedId":"93f5a49a-d3c6-4b1c-939c-cbafc6a95b71","timestamp":{"seconds":"1612149196","nanos":656817300}}}
{"testStepFinished":{"testStepId":"e676ffa8-a0b8-4534-a0fd-cc36cb53df2a","testCaseStartedId":"93f5a49a-d3c6-4b1c-939c-cbafc6a95b71","testStepResult":{"status":"PASSED","duration":{"nanos":57200}},"timestamp":{"seconds":"1612149196","nanos":657360100}}}
{"testCaseFinished":{"testCaseStartedId":"93f5a49a-d3c6-4b1c-939c-cbafc6a95b71","timestamp":{"seconds":"1612149196","nanos":658099000}}}
{"testRunFinished":{"timestamp":{"seconds":"1612149196","nanos":664366100}}}
